3.248319878999480286972655135579707e-16,3.502638199967299572525534711064129e-16
1.5378339835514649174067213534385771e-15,6.2450044510664542515000000000000008815172967286953e-16
3.577740052938804738594653069405809e-16,6.1439310798999452909117559345102821e-17
2.1874980291154807149108270131111809e-15,2.2204460270458440951200000000000002230364880753551e-16
2.0682400945311173437296507683340203e-15,1.268848709221962268503793954395084812e-16
4.6135121987045982726089668837594027e-15,2.0816681503554685624200000000000001125483872956788e-16
9.823334349387492361560621169040488e-15,3.169382748120870526301455432315494866e-16
6.151396554331368470596321886821391e-15,1.5590827084433036883899999999999999137984457577626e-16
8.178741178712204540272383183785561e-15,1.613610481972001656498301294278487229e-16
2.360121158008342188965869811385416e-15,3.8272336306014001238599999999999998286332872827092e-17
4.864516427755422481677761630077173e-15,6.450742980363614918600862059346367787e-17
5.674346071748070307807650407805431e-15,6.3913717428881042239699999999999998860396488306603e-17
2.002308664270389417432781395006928e-15,1.907116107096203835491132938093340639e-17
1.9433228642436896292791968653154216e-14,1.6073297046363855927699999999999999849772885427105e-16
8.894265840622217962856498112537521e-15,6.381386445900113703620389108603933479e-17
8.749997077465993267248973457551632e-15,5.5402730459978470101199999999999997881083771146838e-17
1.5736160119579306257533882161456956e-14,8.786105804340792734310063797398051924e-17
1.2804776706530710131992703313606341e-14,6.4076347753124722224100000000000001251064699760117e-17
5.818613393112487041322104129182296e-15,2.605579869309232469941513219891076752e-17
8.272950067585544389553945190883629e-15,3.3515399321800850405399999999999998867685218560732e-17
