8.60333589019381062002e-01,2.29235160747129729231e+00
2.02875783811043586269e+00,-1.96054387609907197184e-15
3.42561845948172738474e+00,7.24467196806311084650e-03
4.91318043943488635961e+00,-4.58711189133451082533e-16
6.43729817917194946375e+00,3.45200339750238781398e-04
7.97866571241324340491e+00,-1.69088963123842289150e-16
9.52933440536196840753e+00,4.98064826107717437392e-05
1.10855384064970188263e+01,1.22232917358329760328e-16
1.26452872238566378371e+01,1.22185093382924175675e-05
1.42074367251911901633e+01,-3.56728767432075679538e-17
1.57712848748158798173e+01,4.06674111177477861338e-06
1.73363779239833597501e+01,1.22012611558303772991e-17
1.89024099568600192356e+01,1.64835180518109812853e-06
2.04691674027409433734e+01,6.22377293059504416398e-17
2.20364967279385695065e+01,7.66588380698420788904e-07
2.36042847729803852985e+01,1.64499617067796575492e-16
2.51724463266466749189e+01,3.94515677488043235130e-07
2.67409160147872881907e+01,1.19216237387427901657e-16
2.83096428544520186676e+01,2.19434847985243902282e-07
2.98785865061073785398e+01,6.50514082631618358802e-17
