1.5706392628699011697892860422291332334370496721598,1.0322554965384568826787407217288054246084513340261
3.1412785257475508083226337716397428395616145159895,1.1062203914271419781698314652541718690427473944535e-45
4.7119177886406973820507166688393694106798914846225,0.038231677511858517596756486093336785020330079263257
6.2825570515570893528374334982094872918270733162629,-2.1463319184030089210836005833606531067646091101228e-46
7.8531963145044751756665251920946410498392009560344,0.0082580390830709388808986998713683773717497319391313
9.4238355774906032963481968257476231240123864602981,6.2382240554212786382996706299928575212042020644724e-47
10.994474840523222149225746379938435851714496283693,0.0030094876799708496712235001875420302397445059279587
12.565114103610080154882201988125406350247189758233,2.4584428044456068663631810184033792608162896377819e-47
14.135753366758925717846969365075104385183244843789,0.0014159855409592672208592751692282677695823932266067
15.706392629977507224302491113803651391341917185864,-2.7326852259077911993387230033376856725244939145896e-47
17.277031893273573039790919607695603266726381735187,0.00077554653701934279025826073156239720379690787366963
18.84767115665487150692080514463784046853971725917,3.5483564016277850128818929089216983668538481914161e-47
20.418310420129150943073801069984806345444224998015,0.00046984579812085834005296977755465684980698606249259
21.988949683704159638111387565147998588341950256265,2.0032856156500485866968312090385478294852106229926e-47
23.55958894738764585208161579857683922515905769378,0.00030585179035765764077129792034727309674303649012018
25.130228211187357812925874135869925780624963487885,6.5333069585937274736664975222693165420449824578888e-48
26.700867475111043714185678105725200132276872118933,0.00021010546768392833468424003380435371851239846220923
28.271506739166451712709485818404762286510058141886,5.6839080238390175966940324401837264769759607321482e-48
29.842146003361329926359540533354903846255746860078,0.00015049516391538000091724369822857038228240482360445
31.412785267703426431718742072584440422827937812944,4.3737095122342305042076672085723434554221546567382e-48
