1.57063926286990218628e+00,1.03225549653845671827e+00
3.14127852574754884429e+00,7.90954731523779304813e-16
4.71191778864070087707e+00,3.82316775118590607141e-02
6.28255705155708810139e+00,1.28356650894152774344e-16
7.85319631450447630527e+00,8.25803908307101014463e-03
9.42383557749060152275e+00,7.89219558718126754497e-17
1.09944748405232175514e+01,3.00948767997070206620e-03
1.25651141036100888471e+01,-2.20287504904042004633e-16
1.41357533667589283510e+01,1.41598554095931881969e-03
1.57063926299774987427e+01,1.37462750088237264526e-16
1.72770318932735804651e+01,7.75546537019441181542e-04
1.88476711566548722487e+01,-8.34749232571582109554e-18
2.04183104201291492075e+01,4.69845798120841753528e-04
2.19889496837041775734e+01,-1.48411718650099508711e-16
2.35595889473876596298e+01,3.05851790357756397106e-04
2.51302282111873545034e+01,2.09499796802491734670e-17
2.67008674751110604006e+01,2.10105467684021618392e-04
2.82715067391664334195e+01,9.15645376844975306018e-17
2.98421460033613179519e+01,1.50495163915326382121e-04
3.14127852677034447026e+01,-7.40835265806827077925e-17
