5.3332424156739962324760986254015487759512163226263e-16,3.9010477902223239071154694172503715249551470562327e-16
4.2135085273965005925786129798073183581404617025009e-16,3899720874960574896121851957.4552665959629884244816
3.1233471063374352843850200581904113325360635188619e-16,5.8669016473754867550012032972567104313499462992062e-15
3.9045373754249925968070048024293743677945375215095e-16,10916466165653617319433593987.475152494909897096055
5.1283071897885585886792715354390044358688154744208e-16,3.0127795816430016288893657793144649143417681680862e-14
5.608406015091095853117005466903721713014188487379e-16,17251494512808978045145645600.979274746830391817802
4.8856213167813867648601493342544717317214050496373e-16,5.8424517424534865759601058183533141469524608710713e-14
2.0805529310918850827224468304013288063912872959382e-17,1084660999634703103491955487.6294388122005050641869
5.3935599926758090646413379251384271144645794130319e-16,1.078442117619849340518387913999619075389384897948e-13
9.1188413813843959447152478690151784932054979716708e-17,5341780102072344400088825923.4411701429000011375499
3.8828173709501794532506056151508212061731069268727e-16,1.1786843850626905089483660776432246216395568376182e-13
5.3686385625659984441630295468303149504468935470651e-16,78524113331284881866334560314.214357636027291529001
3.8616930681745985365908934060759428980531014891189e-16,1.6605376146152444720738502613065530743171506187429e-13
1.067040858983008386919598087769561642603314757328e-15,106045488220574591944631342420.73604297198986565286
5.6291362893784116492134764356659167089691815592782e-16,3.2681023661940889690628625214322862805645439880934e-13
6.3998643413879433991107906380146517946707179967043e-16,542774095658814357247910964757.57640808296505899548
8.5414273783256826618480624422965451556589150202506e-17,6.6521861955010652288300356262957156041413822994877e-14
6.4853604379174038638294122723118938708069789860557e-16,127554180440937513817247166573.39245653099598597475
3.9623764177898221552855433143560633690130167295611e-16,3.8511062136251451600881867969155724233574771300734e-13
1.8785145653148547369729031404649229563820281375264e-16,21907507253950337892500927746.288505725846888102679
